How to use the pagglomR package • pagglomR
…
\(T_{i, j} ^ {S, m, p, f}\) is the number of trips from zone \(i\) to zone \(j\) in the scenario \(S\) by mode \(m\) and purpose \(p\) in the forecast year \(f\).

In order for the generalised cost files to be read into R and used in the pagglomR package, they should be in comma separated value (csv) format with the column headings o_zone, d_zone and gen_cost.

In the case of outputs from a multi-modal transport model, separate generalised cost skim matrices should be produced for private and public transport modes e.g. road and rail.

Weighted average generalised cost matrices should produced for commuting and business purposes only as productivity benefits are only associated with these journey purposes. Also, the modelled time periods to be included should be based on AM peak, Inter-Peak and PM peak. Off peak periods should not be considered as these periods are not active from the perspective of commuting and business use.

A number of sample generalised cost outputs are included with the pagglomR package for the purposes of this example and for reference.

library(pagglomR)

dm_2024
#> # A tibble: 12,100 × 3
#>    o_zone d_zone gen_cost
#>     <dbl>  <dbl>    <dbl>
#>  1    358    358       0 
#>  2    358    359     629.
#>  3    358    362    1206.
#>  4    358    381    1790.
#>  5    358    382    2110.
#>  6    358    391    3990.
#>  7    358    393    3188.
#>  8    358    395    4174.
#>  9    358    397    3522.
#> 10    358    399    3432.
#> # … with 12,090 more rows
…
# 2054
prod_2054 <- calc_prod_impacts(eff_dens_dm_2054, eff_dens_ds_2054, jobs)

The discounted_prod() function reads in the productivity benefits calculated for each modelled year and interpolates values for years in between the modelled years.

It also calculates nominal productivity benefits per annum by applying GVA growth based on the rates in Table 4 of PAG Unit 6.11. Discounted benefits are then calculated by applying the test discount rate to the nominal benefits. This is undertaken for the 30 year appraisal period plus a 30 year residual value period.

# discounted table of benefits
discounted_benefits <- discounted_prod(appraisal_year = 2020,
                                       prod_2024, 
                                       prod_2039,
                                       prod_2054)

discounted_benefits
#> # A tibble: 64 × 5
#>     year modelled appraisal_year  nominal discounted
#>    <dbl>    <dbl>          <int>    <dbl>      <dbl>
#>  1  2020       0               1       0          0 
#>  2  2021       0               2       0          0 
#>  3  2022       0               3       0          0 
#>  4  2023       0               4       0          0 
#>  5  2024 2707225.              5 3477106.   2088260.
#>  6  2025 2721508.              6 3575846.   2064962.
#>  7  2026 2735791.              7 3677288.   2041868.
#>  8  2027 2750074.              8 3781506.   2018977.
#>  9  2028 2764357.              9 3888572.   1996289.
#> 10  2029 2778640.             10 3998562.   1973803.
#> # … with 54 more rows
…
